GoogLeNet
layerName,H,W,M,C
convolution2,56,56,192,64
inception(3a),28,28,128,96
inception(3b),28,28,192,128
inception(4a),14,14,208,96
inception(4b),14,14,224,112
inception(4c),14,14,256,128
inception(4d),14,14,288,144
inception(4e),14,14,320,160
inception(5a),7,7,320,160
inception(5b),7,7,384,192
